{
    "engineers": [
        {
            "id": 1918,
            "name": "Demo",
            "phone": "0844 888 444 5",
            "email": "Kirsty.Brown@shentongroup.co.uk",
            "avatar": "https://api.rnwsys.com/assets/images/fm-default-logo.png"
        },
        {
            "id": 1897,
            "name": "Dan Price",
            "phone": "0844 888 444 5",
            "email": "Kirsty.Brown@shentongroup.co.uk",
            "avatar": "https://api.rnwsys.com/assets/images/fm-default-logo.png"
        },
        {
            "id": 1899,
            "name": "Marta Sadkowska",
            "phone": "0844 888 444 5",
            "email": "Kirsty.Brown@shentongroup.co.uk",
            "avatar": "https://api.rnwsys.com/assets/images/fm-default-logo.png"
        },
        {
            "id": 1900,
            "name": "Kayleigh Bowman",
            "phone": "0844 888 444 5",
            "email": "Kirsty.Brown@shentongroup.co.uk",
            "avatar": "https://api.rnwsys.com/assets/images/fm-default-logo.png"
        },
        {
            "id": 1907,
            "name": "Danielle Smith",
            "phone": "0844 888 444 5",
            "email": "Kirsty.Brown@shentongroup.co.uk",
            "avatar": "https://api.rnwsys.com/assets/images/fm-default-logo.png"
        },
        {
            "id": 1908,
            "name": "John Conaghan",
            "phone": "0844 888 444 5",
            "email": "Kirsty.Brown@shentongroup.co.uk",
            "avatar": "https://api.rnwsys.com/assets/images/fm-default-logo.png"
        },
        {
            "id": 1898,
            "name": "Natalie Sarnecki",
            "phone": "0844 888 444 5",
            "email": "Kirsty.Brown@shentongroup.co.uk",
            "avatar": "https://api.rnwsys.com/assets/images/fm-default-logo.png"
        },
        {
            "id": 1901,
            "name": "Stuart Paterson",
            "phone": "0844 888 444 5",
            "email": "Kirsty.Brown@shentongroup.co.uk",
            "avatar": "https://api.rnwsys.com/assets/images/fm-default-logo.png"
        },
        {
            "id": 1902,
            "name": "Ryan Higgins",
            "phone": "0844 888 444 5",
            "email": "Kirsty.Brown@shentongroup.co.uk",
            "avatar": "https://api.rnwsys.com/assets/images/fm-default-logo.png"
        },
        {
            "id": 1909,
            "name": "Cliff Carden",
            "phone": "0844 888 444 5",
            "email": "Kirsty.Brown@shentongroup.co.uk",
            "avatar": "https://api.rnwsys.com/assets/images/fm-default-logo.png"
        }
    ]
}