{
    "suppliers": [
        {
            "id": 881,
            "name": "ST Pumps",
            "phone": "0844 888 444 5",
            "email": "Kirsty.Brown@shentongroup.co.uk",
            "logo": "https://api.rnwsys.com/assets/images/fm-default-logo.png"
        },
        {
            "id": 880,
            "name": "Rock Compliance Ltd",
            "phone": "0844 888 444 5",
            "email": "Kirsty.Brown@shentongroup.co.uk",
            "logo": "https://api.rnwsys.com/assets/images/fm-default-logo.png"
        },
        {
            "id": 879,
            "name": "Weelba",
            "phone": "0844 888 444 5",
            "email": "Kirsty.Brown@shentongroup.co.uk",
            "logo": "https://api.rnwsys.com/assets/images/fm-default-logo.png"
        },
        {
            "id": 878,
            "name": "TTM",
            "phone": "0844 888 444 5",
            "email": "Kirsty.Brown@shentongroup.co.uk",
            "logo": "https://api.rnwsys.com/assets/images/fm-default-logo.png"
        },
        {
            "id": 877,
            "name": "DO NOT USE Trane",
            "phone": "0844 888 444 5",
            "email": "Kirsty.Brown@shentongroup.co.uk",
            "logo": "https://api.rnwsys.com/assets/images/fm-default-logo.png"
        },
        {
            "id": 876,
            "name": "Total Cool",
            "phone": "0844 888 444 5",
            "email": "Kirsty.Brown@shentongroup.co.uk",
            "logo": "https://api.rnwsys.com/assets/images/fm-default-logo.png"
        },
        {
            "id": 875,
            "name": "Enerveo",
            "phone": "0844 888 444 5",
            "email": "Kirsty.Brown@shentongroup.co.uk",
            "logo": "https://api.rnwsys.com/assets/images/fm-default-logo.png"
        }
    ]
}