{
    "targets": [
        {
            "company_id": 1687,
            "company_name": "Arc Group",
            "company_logo": "https://api.rnwsys.com/assets/images/fm-default-logo.png",
            "users": [
                {
                    "id": 1918,
                    "name": "Demo",
                    "phone": "0844 888 444 5",
                    "email": "Kirsty.Brown@shentongroup.co.uk",
                    "avatar": "https://api.rnwsys.com/assets/images/fm-default-logo.png"
                },
                {
                    "id": 1897,
                    "name": "Dan Price",
                    "phone": "0844 888 444 5",
                    "email": "Kirsty.Brown@shentongroup.co.uk",
                    "avatar": "https://api.rnwsys.com/assets/images/fm-default-logo.png"
                },
                {
                    "id": 1899,
                    "name": "Marta Sadkowska",
                    "phone": "0844 888 444 5",
                    "email": "Kirsty.Brown@shentongroup.co.uk",
                    "avatar": "https://api.rnwsys.com/assets/images/fm-default-logo.png"
                }
            ]
        },
        {
            "company_id": 1612,
            "company_name": "ASL Property Services",
            "company_logo": "https://api.rnwsys.com/assets/images/fm-default-logo.png",
            "users": [
                {
                    "id": 1900,
                    "name": "Kayleigh Bowman",
                    "phone": "0844 888 444 5",
                    "email": "Kirsty.Brown@shentongroup.co.uk",
                    "avatar": "https://api.rnwsys.com/assets/images/fm-default-logo.png"
                },
                {
                    "id": 1907,
                    "name": "Danielle Smith",
                    "phone": "0844 888 444 5",
                    "email": "Kirsty.Brown@shentongroup.co.uk",
                    "avatar": "https://api.rnwsys.com/assets/images/fm-default-logo.png"
                },
                {
                    "id": 1908,
                    "name": "John Conaghan",
                    "phone": "0844 888 444 5",
                    "email": "Kirsty.Brown@shentongroup.co.uk",
                    "avatar": "https://api.rnwsys.com/assets/images/fm-default-logo.png"
                }
            ]
        },
        {
            "company_id": 1722,
            "company_name": "Aylesbury Vale Dynamos",
            "company_logo": "https://api.rnwsys.com/assets/images/fm-default-logo.png",
            "users": [
                {
                    "id": 1898,
                    "name": "Natalie Sarnecki",
                    "phone": "0844 888 444 5",
                    "email": "Kirsty.Brown@shentongroup.co.uk",
                    "avatar": "https://api.rnwsys.com/assets/images/fm-default-logo.png"
                },
                {
                    "id": 1901,
                    "name": "Stuart Paterson",
                    "phone": "0844 888 444 5",
                    "email": "Kirsty.Brown@shentongroup.co.uk",
                    "avatar": "https://api.rnwsys.com/assets/images/fm-default-logo.png"
                },
                {
                    "id": 1902,
                    "name": "Ryan Higgins",
                    "phone": "0844 888 444 5",
                    "email": "Kirsty.Brown@shentongroup.co.uk",
                    "avatar": "https://api.rnwsys.com/assets/images/fm-default-logo.png"
                },
                {
                    "id": 1909,
                    "name": "Cliff Carden",
                    "phone": "0844 888 444 5",
                    "email": "Kirsty.Brown@shentongroup.co.uk",
                    "avatar": "https://api.rnwsys.com/assets/images/fm-default-logo.png"
                }
            ]
        }
    ],
    "severities": [
        "1",
        "2",
        "3",
        "4",
        "5"
    ],
    "show_columns": [
        "id",
        "created_at",
        "severity",
        "user_name",
        "note"
    ]
}