{
    "place": {
        "id": 6837,
        "name": "Huddersfield",
        "alias": "",
        "code": "",
        "address1": "Eastern Site Colne Bridge Road",
        "address2": "",
        "town": "",
        "city": "Huddersfield",
        "postcode": "HD5 0RH",
        "country": "United Kingdom",
        "full_address": "Eastern Site Colne Bridge Road Huddersfield HD5 0RH",
        "latitude": "",
        "longitude": "",
        "phone": "",
        "email": "ff@qq.com",
        "status": "active"
    }
}