{
    "types": [
        "client",
        "supplier"
    ],
    "statuses": [
        "active",
        "inactive"
    ],
    "show_columns": [
        "id",
        "name",
        "type",
        "email",
        "phone",
        "full_address",
        "status",
        "created_at"
    ],
    "show_options": [
        "keywords",
        "type",
        "status"
    ]
}